%YAML 1.1
%TAG !u! tag:unity3d.com,2011:
--- !u!1045 &1
EditorBuildSettings:
  m_ObjectHideFlags: 0
  serializedVersion: 2
  m_Scenes:
  - enabled: 1
    path: Assets/_ProceduralVillagerPersonalities/Scenes/Demo.unity
    guid: e3274c3969c85884883beb639a2f7311
  m_configObjects: {}
