%YAML 1.1
%TAG !u! tag:unity3d.com,2011:
--- !u!114 &11400000
MonoBehaviour:
  m_ObjectHideFlags: 0
  m_CorrespondingSourceObject: {fileID: 0}
  m_PrefabInstance: {fileID: 0}
  m_PrefabAsset: {fileID: 0}
  m_GameObject: {fileID: 0}
  m_Enabled: 1
  m_EditorHideFlags: 0
  m_Script: {fileID: 11500000, guid: c10a781449bc37846a6cf4e9fd8bfd29, type: 3}
  m_Name: Villager
  m_EditorClassIdentifier: 
  personas: 00000000010000000200000003000000
  homes: 000000000100000002000000
  prefDishes: 000000000100000002000000
  backstories: []
  persona: 3
  home: 1
  prefDish: 1
